Before bringing your kids to school, check out the school cancelations on local news stations websites ([1], [2]). If school is canceled, take your kids sledding ([3]). Avoid the Hill on the UWEC campus ([4]).

[1]: http://www.weau.com/weather/closings
[2]: http://www.wqow.com/category/140926/school-closings
[3]: https://volumeone.org/sites/winterfun/listings/categories/336_Sledding_Hills
[4]: https://volumeone.org/sites/winterfun/listings/u/37/1137_UWEC_Campus_Hill
